{
    "crash_reasons": [
        {
            "id": 456,
            "number_of_crashes": 948,
            "created_at": "2011-10-18T16:59:03Z",
            "last_crash_at": "2011-10-19T19:35:02Z",
            "updated_at": "2011-10-19T19:38:10Z",
            "fixed": true,
            "file":"main.m",
            "class": "-",
            "method": "main",
            "line": "5",
            "app_id": 123,
            "app_version_id": 91,
            "bundle_short_version": "1.0",
            "bundle_version":"90",
            "reason": "*** Terminating app due to uncaught exception 'NSInternalInconsistencyException', reason: 'Invalid update: invalid number of rows in section 1. The number of rows contained in an existing section after the update (1) must be equal to the number of rows contained in that section before the update (0), plus or minus the number of rows inserted or deleted from that section (0 inserted, 0 deleted).'"
        },
        {
            "id": 457,
            "number_of_crashes": 123,
            "created_at": "2011-10-18T16:59:03Z",
            "last_crash_at": "2011-10-19T19:35:02Z",
            "updated_at": "2011-10-19T19:38:10Z",
            "fixed": false,
            "file":"main.m",
            "class": "-",
            "method": "main",
            "line": "5",
            "app_id": 123,
            "app_version_id": 91,
            "bundle_short_version": "1.0",
            "bundle_version":"90",
            "reason": "Some other error message"
        }
],
"total_entries": 78,
"total_pages": 4,
"per_page": 25,
"status": "success",
"current_page": 1
}